{
  "data": [
    {
      "state": "New York",
      "district": "Manhattan",
      "address": "123 Main Street",
      "building": "Tower A",
      "floor": "15th",
      "apartment": "1502",
      "latitude": "40.7128",
      "longitude": "-74.0060"
    },
    {
      "state": "California",
      "district": "Los Angeles",
      "address": "456 Oak Avenue",
      "building": "Building B",
      "floor": "10th",
      "apartment": "1001",
      "latitude": "34.0522",
      "longitude": "-118.2437"
    },
    {
      "state": "Texas",
      "district": "Houston",
      "address": "789 Pine Lane",
      "building": "Block C",
      "floor": "5th",
      "apartment": "501",
      "latitude": "29.7604",
      "longitude": "-95.3698"
    },
    {
      "state": "Florida",
      "district": "Miami",
      "address": "101 Palm Street",
      "building": "Tower D",
      "floor": "20th",
      "apartment": "2002",
      "latitude": "25.7617",
      "longitude": "-80.1918"
    },
    {
      "state": "Illinois",
      "district": "Chicago",
      "address": "202 Maple Drive",
      "building": "Building E",
      "floor": "8th",
      "apartment": "802",
      "latitude": "41.8781",
      "longitude": "-87.6298"
    }
  ]
}