{
  "data": [
    {
      "id": 1,
      "name": "APPLE IPHONE 14 PRO MAX PINK 256GB ESIM",
      "image": "https://m.media-amazon.com/images/I/71PScsfMkRL._AC_SL1500_.jpg",
      "description": "The Apple iPhone 14 Pro Max is a cutting-edge smartphone with 256GB storage and eSIM support. Capture stunning moments, enjoy a massive display, and experience the future of mobile connectivity.",
      "sale_price": 1099.99,
      "regular_price": 1299.99,
      "barcode": "A123456",
      "categories": [
        {
          "id": 1,
          "name": "Smartphones"
        },
        {
          "id": 2,
          "name": "Electronics"
        }
      ],
      "similar": [],
      "attributes": [
        {
          "attrName": "Color",
          "attrValue": "Space Gray"
        },
        {
          "attrName": "Capacity",
          "attrValue": "256GB"
        }
      ],
      "images": [
        {
          "image": "iphone_14_pro_max.jpg",
          "selected": true
        },
        {
          "image": "iphone_14_pro_max_2.jpg",
          "selected": false
        }
      ],
      "quantity": 5,
      "is_available": true
    },
    {
      "id": 2,
      "name": "APPLE USB-C TO USB ADAPTER MJ1M2AM/A",
      "image": "https://techshop.umich.edu/media/catalog/product/cache/8872124951f387c8ded3f228faa55bea/6/1/610022_1.jpg",
      "description": "Simplify your connectivity with the Apple USB-C to USB Adapter (MJ1M2AM/A). This compact adapter ensures seamless connections between USB-C and USB devices, making data transfer and peripheral connections effortless.",
      "sale_price": 19.99,
      "regular_price": 24.99,
      "barcode": "B123456",
      "categories": [
        {
          "id": 3,
          "name": "Accessories"
        },
        {
          "id": 2,
          "name": "Electronics"
        }
      ],
      "similar": [],
      "attributes": [
        {
          "attrName": "Compatibility",
          "attrValue": "USB-C to USB"
        }
      ],
      "images": [
        {
          "image": "usb_c_adapter.jpg",
          "selected": true
        }
      ],
      "quantity": 10,
      "is_available": true
    },
    {
      "id": 3,
      "name": "APPLE BLUETOOTH AIRPODS 3 MME73ZE/A",
      "image": "https://securecontent.jackyselectronics.com/Images/product-images/d4216ea7-51dc-4446-8621-af52f1cade94.jpg",
      "description": "Immerse yourself in wireless audio with the Apple Bluetooth AirPods 3 (MME73ZE/A). These sleek earbuds deliver a seamless listening experience with crystal-clear sound, hands-free calls, and the convenience of Apple's advanced Bluetooth technology.",
      "sale_price": 149.99,
      "regular_price": 169.99,
      "barcode": "C123456",
      "categories": [
        {
          "id": 4,
          "name": "Audio"
        },
        {
          "id": 2,
          "name": "Electronics"
        }
      ],
      "similar": [],
      "attributes": [
        {
          "attrName": "Color",
          "attrValue": "White"
        }
      ],
      "images": [
        {
          "image": "airpods_3.jpg",
          "selected": true
        }
      ],
      "quantity": 8,
      "is_available": true
    }
  ]
}