{
  "data": [
    {
      "id": 55,
      "name": "Food Parcels",
      "image": "",
      "order": "1",
      "parent_id": null,
      "hide": "0",
      "sub_categories": []
    },
    {
      "id": 73,
      "name": "Pantry Staples",
      "image": "",
      "order": "1",
      "parent_id": null,
      "hide": "0",
      "sub_categories": [
        {
          "id": 63,
          "name": "Oil & Ghee",
          "image": "http:\/\/najmatigroup.com\/hpt101\/uploads\/categories\/oil-and-ghee.jpeg",
          "order": "3",
          "parent_id": "73",
          "hide": "0"
        },
        {
          "id": 64,
          "name": "Salt & Sugar",
          "image": "http:\/\/najmatigroup.com\/hpt101\/uploads\/categories\/salt-and-sugar.png",
          "order": "3",
          "parent_id": "73",
          "hide": "0"
        },
        {
          "id": 68,
          "name": "Rice, Pasta and Canned Food",
          "image": "http:\/\/najmatigroup.com\/hpt101\/uploads\/categories\/pasta.jpeg",
          "order": "2",
          "parent_id": "73",
          "hide": "0"
        },
        {
          "id": 74,
          "name": "Soups",
          "image": "http:\/\/najmatigroup.com\/hpt101\/uploads\/categories\/soup.jpeg",
          "order": "1",
          "parent_id": "73",
          "hide": "0"
        },
        {
          "id": 75,
          "name": "Dry Herbs & Spices",
          "image": "http:\/\/najmatigroup.com\/hpt101\/uploads\/categories\/spices.jpeg",
          "order": "1",
          "parent_id": "73",
          "hide": "0"
        }
      ]
    },
    {
      "id": 54,
      "name": "Flowers & Bouquets",
      "image": "",
      "order": "2",
      "parent_id": null,
      "hide": "0",
      "sub_categories": []
    },
    {
      "id": 52,
      "name": "Cakes, Chocolates, Candy & Biscuits",
      "image": "",
      "order": "5",
      "parent_id": null,
      "hide": "0",
      "sub_categories": [
        {
          "id": 61,
          "name": "Birthday Cakes",
          "image": "http:\/\/najmatigroup.com\/hpt101\/uploads\/categories\/birthday-cake.png",
          "order": "3",
          "parent_id": "52",
          "hide": "0"
        }
      ]
    },
    {
      "id": 58,
      "name": "Dairy & Eggs",
      "image": "http:\/\/najmatigroup.com\/hpt101\/uploads\/categories\/eggs.jpeg",
      "order": "5",
      "parent_id": null,
      "hide": "0",
      "sub_categories": [
        {
          "id": 65,
          "name": "Milk",
          "image": "http:\/\/najmatigroup.com\/hpt101\/uploads\/categories\/milk.jpeg",
          "order": "3",
          "parent_id": "58",
          "hide": "0"
        },
        {
          "id": 80,
          "name": "Eggs",
          "image": "http:\/\/najmatigroup.com\/hpt101\/uploads\/categories\/eggs.jpeg",
          "order": "1",
          "parent_id": "58",
          "hide": "0"
        },
        {
          "id": 81,
          "name": "Cheese",
          "image": "http:\/\/najmatigroup.com\/hpt101\/uploads\/categories\/cheese.jpeg",
          "order": "1",
          "parent_id": "58",
          "hide": "0"
        },
        {
          "id": 82,
          "name": "Butter",
          "image": "http:\/\/najmatigroup.com\/hpt101\/uploads\/categories\/butter.jpeg",
          "order": "1",
          "parent_id": "58",
          "hide": "0"
        }
      ]
    },
    {
      "id": 60,
      "name": "Beverages",
      "image": "",
      "order": "7",
      "parent_id": null,
      "hide": "0",
      "sub_categories": [
        {
          "id": 59,
          "name": "Coffee",
          "image": "http:\/\/najmatigroup.com\/hpt101\/uploads\/categories\/coffee.jpeg",
          "order": "6",
          "parent_id": "60",
          "hide": "0"
        },
        {
          "id": 76,
          "name": "Tea",
          "image": "http:\/\/najmatigroup.com\/hpt101\/uploads\/categories\/tea.jpeg",
          "order": "1",
          "parent_id": "60",
          "hide": "0"
        },
        {
          "id": 77,
          "name": "Juice",
          "image": "http:\/\/najmatigroup.com\/hpt101\/uploads\/categories\/juice.jpeg",
          "order": "1",
          "parent_id": "60",
          "hide": "0"
        },
        {
          "id": 78,
          "name": "Soft Drinks",
          "image": "http:\/\/najmatigroup.com\/hpt101\/uploads\/categories\/soft-drink.jpeg",
          "order": "1",
          "parent_id": "60",
          "hide": "0"
        },
        {
          "id": 79,
          "name": "Energy Drinks",
          "image": "http:\/\/najmatigroup.com\/hpt101\/uploads\/categories\/energy-drink.jpeg",
          "order": "1",
          "parent_id": "60",
          "hide": "0"
        }
      ]
    },
    {
      "id": 56,
      "name": "Household Supplies",
      "image": "",
      "order": "8",
      "parent_id": null,
      "hide": "0",
      "sub_categories": []
    },
    {
      "id": 50,
      "name": "Beauty & Personal Care",
      "image": "",
      "order": "9",
      "parent_id": null,
      "hide": "0",
      "sub_categories": []
    },
    {
      "id": 51,
      "name": "Fragrance",
      "image": "",
      "order": "10",
      "parent_id": null,
      "hide": "0",
      "sub_categories": []
    },
    {
      "id": 66,
      "name": "Health and Wellness",
      "image": "",
      "order": "10",
      "parent_id": null,
      "hide": "0",
      "sub_categories": [
        {
          "id": 85,
          "name": "Masks & Sanitizers",
          "image": "",
          "order": "1",
          "parent_id": "66",
          "hide": "0"
        },
        {
          "id": 86,
          "name": "Vitamins & Supplement",
          "image": "",
          "order": "1",
          "parent_id": "66",
          "hide": "0"
        },
        {
          "id": 87,
          "name": "First Aid",
          "image": "",
          "order": "1",
          "parent_id": "66",
          "hide": "0"
        },
        {
          "id": 88,
          "name": "Pain Relief",
          "image": "",
          "order": "1",
          "parent_id": "66",
          "hide": "0"
        },
        {
          "id": 89,
          "name": "Cough & Cold",
          "image": "",
          "order": "1",
          "parent_id": "66",
          "hide": "0"
        }
      ]
    },
    {
      "id": 53,
      "name": "Toys & Games",
      "image": "",
      "order": "11",
      "parent_id": null,
      "hide": "0",
      "sub_categories": []
    },
    {
      "id": 57,
      "name": "Greeting Card",
      "image": "",
      "order": "11",
      "parent_id": null,
      "hide": "0",
      "sub_categories": []
    },
    {
      "id": 67,
      "name": "Books",
      "image": "",
      "order": "11",
      "parent_id": null,
      "hide": "0",
      "sub_categories": []
    },
    {
      "id": 69,
      "name": "Baby",
      "image": "",
      "order": "12",
      "parent_id": null,
      "hide": "0",
      "sub_categories": []
    }
  ],
  "ErrorCode": 200
}