<svg width="315" height="64" viewBox="0 0 315 64" fill="none" xmlns="http://www.w3.org/2000/svg">
<g clip-path="url(#clip0_1_34)">
<path fill-rule="evenodd" clip-rule="evenodd" d="M183.267 26.0048C183.267 40.3623 171.652 52.0097 157.324 52.0097C142.995 52.0097 131.381 40.3733 131.381 26.0048C131.381 11.6364 142.995 0 157.324 0C171.652 0 183.267 11.6364 183.267 26.0048Z" fill="white"/>
<path fill-rule="evenodd" clip-rule="evenodd" d="M157.324 0C171.608 0 183.267 11.6806 183.267 26.0048C183.267 40.0415 172.093 51.534 158.217 51.9986C159.905 51.6115 161.173 50.074 161.173 48.271V41.7781H168.596C170.703 41.7781 172.424 40.0525 172.424 37.9399V27.5423C172.424 25.4297 170.703 23.7041 168.596 23.7041H161.195V17.1559C161.195 15.0432 159.474 13.3177 157.368 13.3177H149.988V6.7805C149.988 4.66782 148.268 2.94227 146.172 2.94227C145.764 2.94227 145.378 3.00864 145.014 3.11925C148.676 1.1393 152.867 0 157.324 0ZM156.496 52.0097C142.587 51.5672 131.392 40.0636 131.392 26.0159C131.392 16.7466 136.267 8.59454 143.58 3.98203C142.83 4.67888 142.356 5.68545 142.356 6.79157V27.5423C142.356 29.655 144.076 31.3806 146.183 31.3806C148.29 31.3806 150.011 29.655 149.999 27.5423C149.999 24.9208 147.948 24.9761 147.948 22.3768C148.18 19.8659 149.58 18.7266 151.764 18.5385C153.739 18.6713 155.217 19.6336 155.592 22.3768C155.581 24.9983 153.551 24.943 153.551 27.5423C153.551 29.644 155.261 31.3585 157.357 31.3806H157.368H157.379H157.39H157.412C157.423 31.3806 157.445 31.3806 157.456 31.3806C158.581 31.3585 159.596 30.8386 160.28 30.0422C160.975 29.3453 161.934 28.9029 162.993 28.9029C165.1 28.9029 166.821 30.6284 166.821 32.7411C166.821 34.8538 165.1 36.5683 162.993 36.5683C161.912 36.5683 160.93 36.1148 160.235 35.3847H160.202C159.496 34.5994 158.482 34.1127 157.368 34.1127C157.301 34.1127 157.235 34.1127 157.169 34.1237C156.971 34.1348 156.783 34.1569 156.596 34.2012C156.353 34.2565 156.11 34.3228 155.879 34.4224C155.768 34.4666 155.658 34.5219 155.548 34.5883C155.437 34.6436 155.338 34.71 155.239 34.7764C154.224 35.4732 153.551 36.6346 153.551 37.9509V48.271C153.518 50.085 154.798 51.6225 156.496 52.0097Z" fill="#EA2127"/>
<path d="M28.3917 13.926H23.2957V28.383H28.3917V13.926Z" fill="black"/>
<path d="M25.8437 6.63672C25.0716 6.63672 24.4208 6.91325 23.8693 7.45525C23.3288 7.99724 23.0531 8.66092 23.0531 9.42414C23.0531 10.1984 23.3288 10.8621 23.8803 11.4262C24.4319 11.9903 25.0826 12.2669 25.8437 12.2669C26.6269 12.2669 27.2887 11.9903 27.8402 11.4373C28.3807 10.8842 28.6564 10.2095 28.6564 9.42414C28.6564 8.63879 28.3917 7.97512 27.8512 7.43312C27.3107 6.90219 26.6379 6.63672 25.8437 6.63672Z" fill="black"/>
<path d="M19.0712 28.383V7.43311H13.3686V15.5741H5.77981V7.43311H0.0772095V28.383H5.77981V19.8548H13.3686V28.383H19.0712Z" fill="black"/>
<path d="M115.453 28.383H125.799V26.5911H117.35V17.5651H125.799V15.7732H117.35V9.22502H125.799V7.43311H115.453V28.383Z" fill="black"/>
<path d="M61.019 15.9281H49.6469V7.43311H47.7497V28.383H49.6469V17.5651H61.019V28.383H62.9162V7.43311H61.019V15.9281Z" fill="black"/>
<path d="M42.1132 8.48393C41.5948 8.10785 40.9771 7.84239 40.2712 7.68753C39.5542 7.53267 38.4512 7.44418 36.9511 7.44418H33.1347V28.3941H35.0319V18.9921H37.2269C39.6315 18.9921 41.3963 18.5275 42.5103 17.5983C43.6244 16.6692 44.1759 15.2091 44.1759 13.2181C44.1759 12.2005 43.9994 11.2824 43.6354 10.4528C43.2824 9.61217 42.7751 8.9485 42.1132 8.48393ZM40.9771 16.4259C40.183 17.0121 38.6277 17.2997 36.3334 17.2997H35.0319V9.0923H36.3334C37.8556 9.0923 38.9366 9.18079 39.5763 9.35777C40.2161 9.52369 40.7124 9.82234 41.0874 10.2427C41.4514 10.6519 41.7162 11.1165 41.9037 11.6364C42.0802 12.1562 42.1794 12.7314 42.1794 13.3509C42.1684 14.8109 41.7713 15.8396 40.9771 16.4259Z" fill="black"/>
<path d="M95.4663 11.4373L110.236 29.0024V7.43311H108.471V24.0691L93.6794 6.54822V28.383H95.4663V11.4373Z" fill="black"/>
<path d="M89.4879 17.9523C89.4879 16.448 89.2121 15.0432 88.6496 13.7048C88.0871 12.3775 87.2819 11.1828 86.2119 10.121C85.1641 9.09228 83.9618 8.30694 82.6161 7.776C81.2704 7.234 79.8255 6.96854 78.2812 6.96854C76.748 6.96854 75.3141 7.234 73.9684 7.76494C72.6338 8.29588 71.4315 9.09228 70.3836 10.121C69.3137 11.1828 68.5085 12.3775 67.957 13.7048C67.3944 15.0432 67.1187 16.448 67.1187 17.9523C67.1187 19.4345 67.3944 20.8282 67.957 22.1555C68.5085 23.4718 69.3247 24.6664 70.3836 25.7283C71.4535 26.7791 72.6558 27.5755 74.0015 28.1286C75.3472 28.6706 76.7701 28.9471 78.2812 28.9471C79.7813 28.9471 81.2153 28.6706 82.5609 28.1286C83.9176 27.5755 85.131 26.7791 86.2009 25.7283C87.2598 24.6885 88.065 23.4939 88.6275 22.1666C89.2011 20.8282 89.4879 19.4345 89.4879 17.9523ZM86.7855 21.514C86.3222 22.6422 85.6604 23.6488 84.789 24.5337C83.9066 25.4075 82.9139 26.0823 81.7999 26.5358C80.6968 27.0003 79.5276 27.2216 78.2923 27.2216C77.0238 27.2216 75.8436 27.0003 74.7626 26.5468C73.6816 26.0933 72.7 25.4186 71.8175 24.5337C70.9462 23.6377 70.2733 22.6312 69.8211 21.514C69.3688 20.3968 69.1372 19.2022 69.1372 17.9412C69.1372 16.6692 69.3688 15.4856 69.8211 14.3685C70.2843 13.2623 70.9462 12.2447 71.8175 11.3488C72.7 10.4749 73.6927 9.8002 74.7847 9.34669C75.8766 8.88212 77.0458 8.6609 78.2812 8.6609C79.5276 8.6609 80.7079 8.89318 81.8109 9.34669C82.9249 9.8002 83.9066 10.4749 84.778 11.3488C85.6494 12.2447 86.3222 13.2513 86.7745 14.3685C87.2377 15.4967 87.4583 16.6803 87.4583 17.9412C87.4694 19.2022 87.2488 20.3858 86.7855 21.514Z" fill="black"/>
<path d="M76.4171 34.5883H75.7443C75.0604 34.6547 74.4207 34.8538 73.8361 35.1856C73.2404 35.4732 72.7441 35.8714 72.336 36.3802C71.9168 36.8448 71.5859 37.3979 71.3432 38.0394C71.1006 38.681 70.9903 39.3225 70.9903 39.9641V40.506C71.0565 41.2361 71.2109 41.8334 71.4535 42.298C71.6962 42.7625 71.9168 43.1165 72.1153 43.3709C72.3139 43.6142 72.6117 43.9018 72.9867 44.2115C73.3728 44.5213 73.8691 44.7978 74.4868 45.019C75.1045 45.2402 75.7443 45.3619 76.4061 45.3619C76.9466 45.3619 77.4981 45.2734 78.0606 45.1075C78.6232 44.9416 79.1305 44.6982 79.6048 44.3885V42.5081C79.0864 42.9284 78.568 43.2492 78.0275 43.4815C77.4981 43.7138 76.9686 43.8244 76.4392 43.8244C76.0531 43.8244 75.634 43.758 75.1928 43.6253C74.7516 43.4926 74.3324 43.2382 73.9133 42.8731C73.5052 42.4971 73.1963 42.0657 72.9978 41.5569C72.7992 41.0591 72.7 40.5282 72.7 39.9641C72.7 39.3336 72.8213 38.7584 73.0529 38.2274C73.2956 37.6965 73.6265 37.243 74.0567 36.878C74.4868 36.513 74.9391 36.2917 75.3913 36.2032C75.8546 36.1148 76.2186 36.0705 76.4943 36.0705C77.0458 36.0705 77.5091 36.1479 77.8731 36.3028C78.2371 36.4577 78.568 36.6125 78.8438 36.7895C79.1306 36.9554 79.3842 37.1324 79.6048 37.3094L79.6931 35.6059C79.1526 35.252 78.6121 34.9976 78.0827 34.8317C77.5974 34.6657 77.0348 34.5883 76.4171 34.5883Z" fill="black"/>
<path d="M102.073 42.0214C102.349 41.3577 102.481 40.672 102.481 39.9862C102.481 39.588 102.426 39.1566 102.316 38.692C102.206 38.2274 102.04 37.8071 101.831 37.4089C101.621 37.0218 101.367 36.6567 101.07 36.336C100.783 36.0152 100.309 35.6502 99.6577 35.2299C99.0069 34.8095 98.1356 34.5994 97.0436 34.5994C96.0619 34.5994 95.1353 34.8427 94.264 35.3294C93.3926 35.8161 92.7197 36.4908 92.2565 37.3315C91.7932 38.1832 91.5616 39.046 91.5616 39.9309C91.5616 40.5835 91.6829 41.214 91.9256 41.8334C92.1682 42.4528 92.444 42.9395 92.7639 43.3045C93.0837 43.6695 93.3815 43.9682 93.6463 44.1783C93.911 44.3885 94.3081 44.6319 94.8375 44.9084C95.367 45.1849 96.0839 45.3287 96.9774 45.3287C97.6943 45.3287 98.3893 45.196 99.0731 44.9305C99.746 44.665 100.353 44.2779 100.871 43.7801C101.4 43.2713 101.798 42.6851 102.073 42.0214ZM100.253 41.8555C99.9224 42.4417 99.4702 42.9174 98.8966 43.2603C98.3341 43.6142 97.7164 43.7801 97.0436 43.7801C96.1612 43.7801 95.378 43.4815 94.6721 42.8842C93.9661 42.2869 93.558 41.7006 93.4477 41.1365C93.3374 40.5724 93.2823 40.1742 93.2823 39.964C93.2823 39.3557 93.4257 38.7694 93.7125 38.1942C93.9992 37.6191 94.3963 37.1434 94.9037 36.7674C95.4111 36.3913 95.9957 36.1701 96.6465 36.0926H97.0215C97.6833 36.0926 98.301 36.2696 98.8966 36.6346C99.4923 36.9996 99.9445 37.4642 100.264 38.0505C100.584 38.6367 100.75 39.2672 100.75 39.953C100.761 40.6388 100.595 41.2582 100.253 41.8555Z" fill="black"/>
<path d="M120.273 40.8379C120.108 41.1697 119.909 41.6454 119.689 42.2427L119.137 40.8379L116.115 34.4003L113.71 45.0743H115.221L116.324 40.0194L116.523 38.5925C116.721 39.2119 116.887 39.6543 116.997 39.9088L119.689 45.4504L122.358 40.0194C122.567 39.588 122.722 39.1123 122.832 38.5925L122.887 39.0681L122.942 39.6101L122.998 39.9862L124.134 45.0633H125.689L123.229 34.3892L120.273 40.8379Z" fill="black"/>
<path d="M0 36.2475H2.7024V45.0743H4.36795V36.2475H7.07035V34.8206H0V36.2475Z" fill="black"/>
<path d="M18.641 45.0743H24.3326V43.581H20.2955V40.2516H24.3326V38.7916H20.2955V36.2475H24.3326V34.8206H18.641V45.0743Z" fill="black"/>
<path d="M53.5626 45.0743H59.2542V43.581H55.2061V40.2516H59.2542V38.7916H55.2061V36.2475H59.2542V34.8206H53.5626V45.0743Z" fill="black"/>
<path d="M38.1755 34.8206H36.532V45.0743H41.8926V43.581H38.1755V34.8206Z" fill="black"/>
<path d="M314.68 18.1182C314.261 17.0453 313.665 16.0608 312.871 15.2313C311.901 14.2136 310.875 13.2402 309.849 12.2669C309.452 11.8797 309.011 11.5368 308.569 11.1939C308.106 10.84 307.61 10.8289 307.191 11.1497C307.522 11.5479 307.852 11.9571 308.183 12.3664C308.161 12.3885 308.139 12.3996 308.117 12.4217C307.687 12.1452 307.246 11.8687 306.816 11.5921C306.562 12.0346 306.617 12.466 306.97 12.8531C307.158 13.0522 307.345 13.2513 307.522 13.4393C307.246 13.561 306.937 13.6827 306.65 13.8376C305.955 14.2136 305.437 14.7667 305.338 15.5742C305.15 17.0342 305.382 18.4279 306.242 19.6668C306.286 19.7332 306.341 19.7995 306.385 19.888C305.911 20.1535 305.426 20.1092 304.94 20.1092C304.852 20.0982 304.775 20.065 304.687 20.065C294.837 20.065 284.987 20.065 275.148 20.065H274.872L274.762 20.0208C274.409 19.877 274.111 19.6668 273.957 19.335C273.813 19.0142 273.67 18.6823 273.604 18.3284C273.35 17.1227 273.14 15.9171 272.898 14.7114C272.534 12.8531 272.236 10.9838 272.225 9.0923C272.214 8.42863 271.982 7.96406 271.365 7.70966H271.221V9.21398C271.177 9.21398 271.144 9.22504 271.1 9.22504C270.901 8.73835 270.78 8.22953 270.692 7.70966H270.648C270.251 7.8977 269.997 8.19635 269.953 8.64986C269.942 8.73835 269.931 8.8379 269.931 8.93745C269.997 9.8334 270.019 10.7404 270.151 11.6143C270.427 13.4615 270.747 15.2976 271.089 17.1338C271.265 18.1182 271.464 19.1027 271.762 20.0539C272.126 21.2264 273.019 22.421 274.795 22.41C274.883 22.4321 274.96 22.4542 275.049 22.4542C284.855 22.4542 294.66 22.4542 304.466 22.4542H304.952C305.183 22.4542 305.382 22.4542 305.569 22.4542C306.639 22.4542 307.665 22.3104 308.647 21.8458C308.713 21.8127 308.823 21.8348 308.911 21.868C309.485 22.056 310.036 22.3104 310.621 22.41C311.195 22.5095 311.79 22.4874 312.375 22.4432C313.511 22.3657 314.349 21.8237 314.801 20.7508C314.89 20.5517 314.934 20.3305 315 20.1203V19.3128C314.901 18.8925 314.824 18.4943 314.68 18.1182ZM308.669 18.7155C308.558 18.804 308.459 18.8261 308.36 18.7155C307.775 18.0961 307.444 17.3661 307.488 16.5033C307.511 16.094 307.841 15.7622 308.194 15.7069C308.658 15.6405 309.022 15.8286 309.176 16.271C309.286 16.5807 309.319 16.9015 309.353 17.0674C309.319 17.8196 309.143 18.3395 308.669 18.7155ZM311.735 20.2199C311.371 20.2641 311.018 20.1756 310.654 20.0208C311.173 19.2575 311.548 18.4611 311.581 17.4656C312.022 17.9855 312.452 18.439 312.618 19.0695C312.761 19.6557 312.375 20.1424 311.735 20.2199Z" fill="black"/>
<path d="M196.944 37.066C196.745 35.7055 196.227 34.5219 195.19 33.5928C194.617 33.0729 193.955 32.8185 193.116 32.8185C193.657 33.1725 194.021 33.6039 194.297 34.1237C194.231 34.0905 194.175 34.0352 194.109 33.991C193.745 33.7366 193.403 33.449 193.017 33.2388C192.267 32.8406 191.638 32.9512 191.01 33.5154C190.458 34.0131 190.182 34.6547 190.039 35.3626C189.918 35.9931 189.984 36.5683 190.657 36.9554C190.557 36.9554 190.513 36.9554 190.458 36.9554C189.267 36.9775 188.307 37.7186 187.998 38.869C187.943 39.0681 187.899 39.2782 187.844 39.4884V40.495C187.855 40.5282 187.877 40.5503 187.877 40.5835C188.01 41.4573 188.12 42.3311 188.274 43.1939C188.34 43.6032 188.429 44.0235 188.594 44.4106C188.793 44.8641 189.311 45.0411 189.841 44.9194C190.337 44.7978 190.624 44.4659 190.657 43.9682C190.668 43.758 190.679 43.5368 190.646 43.3266C190.535 42.6298 190.414 41.9329 190.304 41.2361C190.227 40.7936 190.171 40.3401 190.138 39.8866C190.116 39.6543 190.249 39.4773 190.48 39.3889C190.723 39.3004 190.921 39.3667 191.087 39.5548C191.175 39.6543 191.241 39.776 191.308 39.8866C191.506 40.1853 191.694 40.506 191.925 40.7936C192.388 41.3688 193.006 41.6785 193.723 41.7338C195.047 41.8334 196.216 41.048 196.712 39.8092C197.054 38.9022 197.087 37.9951 196.944 37.066ZM194.705 38.5593C194.65 38.9132 194.506 39.2561 194.109 39.3446C193.701 39.4442 193.37 39.2561 193.116 38.9353C193.017 38.8026 192.918 38.6699 192.841 38.515C192.488 37.785 191.991 37.2209 191.109 37.0107C191.219 36.9775 191.274 36.9665 191.33 36.9554C191.804 36.8669 192.091 36.5683 192.234 36.1147C192.3 35.9046 192.366 35.6944 192.466 35.4953C192.675 35.075 192.984 34.9754 193.381 35.2188C194.197 35.7055 194.672 36.4245 194.738 37.3868C194.782 37.7629 194.76 38.1721 194.705 38.5593Z" fill="black"/>
<path d="M299.811 43.1607C299.315 43.0722 298.797 43.0612 298.3 43.1054C297.925 43.1386 297.55 43.2935 297.208 43.4483C296.922 43.581 296.822 43.8576 296.833 44.1783C297.23 44.1562 297.605 44.1452 297.98 44.123C297.98 44.1562 297.991 44.1784 297.991 44.2115C297.628 44.3443 297.275 44.477 296.911 44.6097C297.021 44.8863 297.142 45.0079 297.539 45.207H298.014C298.322 45.1628 298.62 45.0854 298.918 45.0743C299.238 45.0632 299.569 45.1075 299.889 45.1186C300.308 45.1296 300.584 44.9526 300.672 44.6319C300.87 43.9018 300.539 43.2824 299.811 43.1607Z" fill="black"/>
<path d="M308.9 43.1607C308.404 43.0722 307.886 43.0612 307.389 43.1054C307.014 43.1386 306.639 43.2935 306.297 43.4483C306.01 43.581 305.9 43.8576 305.922 44.1783C306.319 44.1562 306.694 44.1452 307.069 44.123C307.08 44.1562 307.08 44.1784 307.08 44.2115C306.727 44.3443 306.363 44.477 305.999 44.6097C306.11 44.9195 306.363 45.0743 306.639 45.207H307.113C307.422 45.1628 307.72 45.0854 308.029 45.0743C308.349 45.0632 308.68 45.1075 309 45.1186C309.408 45.1296 309.695 44.9526 309.783 44.6319C309.959 43.9018 309.628 43.2824 308.9 43.1607Z" fill="black"/>
<path d="M248.984 9.84444C249.381 10.0878 249.801 10.0989 250.198 9.84444C250.595 9.6011 250.771 9.22502 250.749 8.76045C250.738 8.24057 250.529 7.85343 249.999 7.67645H249.668V8.86C249.635 8.86 249.602 8.87106 249.569 8.87106C249.459 8.49498 249.348 8.12996 249.227 7.74282C248.786 7.90874 248.499 8.19633 248.444 8.64984C248.378 9.16971 248.554 9.57898 248.984 9.84444Z" fill="black"/>
<path d="M192.091 10.0214C192.609 10.0767 193.105 9.76703 193.282 9.26928C193.469 8.7494 193.282 8.16316 192.808 7.85345C192.719 7.79814 192.62 7.74284 192.521 7.68753H192.289V8.87108C192.256 8.87108 192.223 8.88214 192.179 8.88214C192.069 8.50606 191.958 8.11892 191.848 7.74284C191.252 7.97512 190.988 8.41757 191.054 8.99275C191.12 9.51263 191.583 9.96613 192.091 10.0214Z" fill="black"/>
<path d="M312.706 34.8759C312.651 34.5109 312.584 34.1348 312.485 33.7808C312.364 33.3273 312.011 33.0287 311.647 33.0066C311.625 33.272 311.592 33.5264 311.581 33.7808C311.57 34.0242 311.68 34.2897 311.47 34.5883C311.316 34.0131 311.184 33.5043 311.051 32.9844C310.478 33.1504 310.191 33.6813 310.301 34.3781C310.445 35.3515 310.621 36.3249 310.742 37.2983C310.809 37.7297 310.864 38.1721 310.809 38.6035C310.742 39.2672 310.158 39.5437 309.54 39.3004C308.933 39.057 308.702 38.5482 308.58 37.973C308.415 37.1656 308.294 36.347 308.139 35.5396C308.029 34.9423 307.941 34.345 307.808 33.7587C307.709 33.3052 307.411 33.0176 306.959 32.8959C306.926 33.4379 306.904 33.9468 306.882 34.4556C306.849 34.4556 306.816 34.4556 306.783 34.4666C306.65 33.9689 306.518 33.4711 306.374 32.9513C306.055 33.0397 305.801 33.2167 305.713 33.5375C305.635 33.814 305.602 34.1237 305.635 34.4003C305.746 35.2852 305.911 36.159 306.032 37.0439C306.099 37.5416 306.154 38.0394 306.143 38.5371C306.143 39.0128 305.878 39.3114 305.47 39.3557C305.338 39.3667 305.194 39.2893 305.051 39.2672C304.709 39.2119 304.466 39.0238 304.334 38.7031C304.19 38.327 304.025 37.9398 303.959 37.5527C303.639 35.7497 303.341 33.9357 303.043 32.1217C302.812 30.7501 302.591 29.3785 302.382 28.0069C302.282 27.3985 301.775 26.9893 301.378 27.0003C301.345 27.5091 301.323 28.018 301.289 28.5157C301.267 28.5157 301.234 28.5268 301.212 28.5268C301.069 28.029 300.937 27.5423 300.793 27.0335C300.418 27.1884 300.197 27.4649 300.142 27.852C300.109 28.1175 300.109 28.394 300.142 28.6595C300.506 31.0377 300.881 33.4158 301.256 35.794C301.378 36.5683 301.499 37.3536 301.455 38.1389C301.444 38.3823 301.411 38.6367 301.334 38.8579C301.179 39.2672 300.694 39.4331 300.308 39.2451C299.778 38.9907 299.591 38.4929 299.481 37.9841C299.315 37.1766 299.183 36.3581 299.039 35.5396C298.929 34.9423 298.841 34.345 298.708 33.7587C298.609 33.3052 298.322 33.0176 297.859 32.8959C297.826 33.4379 297.804 33.9468 297.771 34.4556C297.738 34.4556 297.705 34.4556 297.672 34.4666C297.539 33.9689 297.396 33.4711 297.263 32.9734C296.944 33.0397 296.69 33.2167 296.602 33.5486C296.524 33.8251 296.491 34.1348 296.524 34.4113C296.635 35.2962 296.8 36.1701 296.922 37.0549C296.988 37.5416 297.054 38.0505 297.043 38.5482C297.021 39.2561 296.436 39.5769 295.796 39.2782C295.377 39.0902 295.079 38.7805 294.903 38.3602C294.583 37.5527 294.296 36.7452 293.999 35.9378C293.646 34.9865 293.282 34.0352 292.697 33.1946C292.388 32.7521 292.013 32.4314 291.362 32.5752C291.572 32.4203 291.748 32.3097 291.903 32.177C293.182 31.104 293.91 29.6771 294.363 28.1065C294.407 27.9627 294.407 27.7857 294.385 27.6308C294.34 27.2879 294.153 27.0225 293.822 26.8234C293.789 27.5645 293.579 28.1839 293.138 28.8033C293.315 28.0843 293.491 27.4428 293.282 26.757C292.796 26.8234 292.532 27.1109 292.377 27.5091C292.289 27.7414 292.223 27.9737 292.134 28.206C291.704 29.3342 291.076 30.3076 290.006 30.9271C289.829 31.0266 289.642 31.104 289.498 31.2368C289.311 31.4027 289.123 31.5907 289.002 31.8009C288.803 32.1659 288.925 32.5309 289.167 32.8406C289.388 33.1282 289.686 33.2499 290.05 33.1504C290.314 33.084 290.568 32.9734 290.844 32.8849C290.414 33.3273 290.524 33.7919 290.767 34.2675C291.131 34.9865 291.495 35.7165 291.826 36.4466C291.969 36.7563 292.057 37.0881 292.112 37.42C292.289 38.3602 291.859 39.1123 291.02 39.3114C290.756 39.3778 290.469 39.3557 290.204 39.3667V39.3778C290.193 39.3667 290.193 39.3667 290.193 39.3667C290.094 39.3557 289.995 39.3336 289.895 39.3336H206.97C206.893 39.3336 206.816 39.3336 206.739 39.3446C206.617 39.3336 206.485 39.3446 206.364 39.3336C205.834 39.3114 205.415 39.1455 205.239 38.6146C205.139 38.327 205.04 38.0505 204.963 37.7518C204.643 36.4576 204.191 35.2188 203.43 34.1016C202.977 33.4379 202.382 32.9291 201.577 32.73C201.323 32.6637 201.058 32.6637 200.793 32.6305C201.687 33.1282 202.636 34.3118 202.658 35.0086C202.647 35.0086 202.636 35.0086 202.636 34.9976C202.569 34.9201 202.514 34.8317 202.448 34.7542C201.963 34.1237 201.4 33.5817 200.661 33.261C199.933 32.9512 199.271 33.1393 198.83 33.7919C198.598 34.1348 198.389 34.5219 198.268 34.9201C197.804 36.5683 197.948 38.1942 198.654 39.7539C199.084 40.6941 199.812 41.3356 200.816 41.6232C201.555 41.8334 202.194 41.6675 202.735 41.1255C202.79 41.0702 202.845 41.0259 202.944 40.9374C202.911 41.5015 202.856 41.9882 202.415 42.3311C202.216 42.486 202.062 42.6851 201.908 42.8953C201.742 43.1275 201.742 43.3819 201.852 43.6474C202.205 44.4881 203.077 44.7203 203.794 44.1673C204.367 43.7248 204.786 43.1607 205.018 42.4749C205.139 42.1099 205.217 41.7338 205.305 41.3688C205.724 41.7338 206.353 41.7449 206.838 41.7006H290.248C291.517 41.7449 292.598 41.3246 293.524 40.4839C294.407 41.944 297.374 42.1652 298.532 40.8489C298.554 40.8711 298.576 40.8821 298.598 40.9042C299.249 41.6675 300.087 41.8002 301.014 41.6675C301.687 41.5679 302.337 41.3909 302.856 40.9153C302.889 40.8821 302.933 40.86 302.977 40.8379C303.573 41.6232 304.444 41.6896 305.304 41.7117C306.187 41.7449 306.992 41.5015 307.632 40.8268C308.029 41.2803 308.47 41.6343 309.066 41.6564C309.805 41.6785 310.533 41.6675 311.272 41.6343C312.309 41.6011 313.158 40.6056 313.257 39.6875C313.301 39.3004 313.301 38.8911 313.246 38.504C313.092 37.2872 312.893 36.0816 312.706 34.8759ZM202.349 37.2209C201.643 37.3978 201.577 37.6523 201.654 38.338C201.665 38.4929 201.687 38.6588 201.654 38.8026C201.599 39.057 201.334 39.1566 201.146 38.9907C200.959 38.8247 200.76 38.6256 200.661 38.3934C200.341 37.6633 200.275 36.889 200.385 36.1037C200.407 35.8935 200.518 35.6834 200.65 35.5064C200.937 35.0971 201.323 35.0861 201.599 35.4953C201.852 35.8714 202.04 36.2807 202.238 36.6899C202.316 36.8448 202.349 37.0107 202.393 37.1656C202.36 37.2098 202.349 37.2209 202.349 37.2209Z" fill="black"/>
<path d="M260.897 22.1445C261.934 22.4874 263.004 22.5095 264.074 22.3325C265.541 22.1002 266.842 21.5029 267.923 20.4632C268.386 20.0097 268.75 19.5009 268.883 18.8483C269.092 17.8417 268.651 17.1448 267.725 17.001C267.614 16.9789 267.493 16.9789 267.372 16.9789C266.434 16.99 265.497 17.0232 264.57 17.0232C263.963 17.0232 263.677 16.7135 263.82 16.1272C264.129 14.8331 264.824 13.7933 265.971 13.0854C266.037 13.0411 266.136 13.019 266.214 13.008C266.39 12.9858 266.511 13.0743 266.445 13.2513C266.346 13.5389 266.202 13.8154 266.07 14.092C265.971 14.2911 265.827 14.4902 265.761 14.7003C265.607 15.187 265.761 15.6073 266.125 15.8728C266.522 16.1493 266.986 16.1715 267.394 15.8839C267.581 15.7401 267.791 15.5631 267.901 15.364C268.177 14.8662 268.453 14.3574 268.64 13.8265C268.927 12.9969 268.817 12.1784 268.331 11.4262C268.243 11.2935 268.133 11.1829 268.033 11.0612C268.298 11.9903 267.978 12.7757 267.548 13.55C267.703 12.9305 267.658 12.3 267.614 11.6806C267.537 10.8068 266.975 10.3533 266.103 10.4639C265.607 10.5303 265.11 10.663 264.724 10.9948C264.195 11.4483 263.655 11.9018 263.213 12.4328C262.132 13.738 261.382 15.187 261.415 16.9568C261.426 17.72 261.724 18.2841 262.342 18.6934C263.191 19.2575 264.151 19.2686 265.111 19.2022C265.353 19.1912 265.596 19.2022 265.85 19.2022C265.805 19.3128 265.75 19.3792 265.673 19.4234C264.691 20.1203 263.61 20.4411 262.397 20.2752C261.018 20.0761 260.081 19.0474 260.037 17.6537C260.004 16.7577 260.29 15.9502 260.72 15.187C260.798 15.0432 260.886 14.8994 260.93 14.7335C261.018 14.3906 260.996 14.0588 260.72 13.7933C260.279 14.3795 259.794 14.8884 259.595 14.9215C259.816 14.4348 260.015 13.9703 260.235 13.4946C259.838 13.4062 259.496 13.4725 259.22 13.7601C259.077 13.9039 258.956 14.0698 258.845 14.2468C258.117 15.375 257.897 16.636 257.897 17.9523C257.875 19.888 259.077 21.5361 260.897 22.1445Z" fill="black"/>
<path d="M201.323 22.3436C202.062 22.5538 202.702 22.3878 203.242 21.8569C203.297 21.8016 203.352 21.7574 203.452 21.6689C203.419 22.233 203.364 22.7086 202.922 23.0626C202.724 23.2174 202.569 23.4165 202.415 23.6267C202.249 23.859 202.249 24.1134 202.36 24.3789C202.713 25.2195 203.584 25.4518 204.301 24.8987C204.875 24.4563 205.294 23.8922 205.525 23.2064C205.647 22.8413 205.724 22.4653 205.823 22.0781C206.176 22.4763 206.651 22.4321 207.136 22.4321V22.421H207.246H247.55C248.698 22.3878 249.845 22.4542 250.959 22.3325C252.966 22.1224 254.091 20.9167 254.301 18.9146C254.411 17.8749 254.29 16.8573 254.08 15.8396C253.86 14.7999 253.529 13.8044 252.911 12.9195C252.415 12.2116 251.808 11.6253 250.992 11.3045C250.882 11.2603 250.771 11.2382 250.65 11.205C251.499 11.8576 251.996 12.6982 252.227 13.7159C252.161 13.6495 252.106 13.5721 252.062 13.4836C251.621 12.7757 251.069 12.1784 250.374 11.7249C249.558 11.1939 248.797 11.3488 248.223 12.1341C247.881 12.6098 247.661 13.1407 247.539 13.7159C247.341 14.6008 247.396 15.4857 247.484 16.3706C247.595 17.4988 248.157 18.3837 249.073 19.0252C250.021 19.6889 250.97 19.6225 251.819 18.8372C251.896 18.7708 251.963 18.7045 252.084 18.5939C252.062 18.7045 252.062 18.7708 252.04 18.8261C251.819 19.5451 251.29 19.877 250.595 20.0097C249.525 20.1977 248.455 20.0871 247.374 20.0982L247.363 20.0871V20.0982C247.264 20.0871 247.164 20.065 247.065 20.065C233.851 20.065 220.648 20.065 207.434 20.065C207.356 20.065 207.279 20.065 207.202 20.0761L207.103 20.0982C207.003 20.1203 206.97 20.1203 206.871 20.1092C206.342 20.0871 205.934 19.877 205.757 19.335C205.658 19.0474 205.559 18.7598 205.481 18.4722C205.161 17.178 204.709 15.9392 203.948 14.8331C203.496 14.1694 202.9 13.6606 202.095 13.4615C201.841 13.3951 201.577 13.3951 201.312 13.3619C202.205 13.8486 203.154 15.0432 203.165 15.7622C203.088 15.6626 203.022 15.5742 202.955 15.4857C202.47 14.8552 201.908 14.3132 201.169 13.9924C200.441 13.6827 199.779 13.8707 199.337 14.5344C199.106 14.8773 198.896 15.2644 198.786 15.6626C198.323 17.3108 198.466 18.9368 199.172 20.4964C199.58 21.4145 200.308 22.056 201.323 22.3436ZM250.683 16.4922C250.672 16.625 250.584 16.7577 250.529 16.8794C250.385 16.8019 250.209 16.7688 250.109 16.6471C249.812 16.271 249.657 15.8064 249.635 15.3308C249.624 14.9326 249.624 14.5344 249.679 14.1473C249.768 13.561 250.165 13.384 250.683 13.6606C251.091 13.8818 251.323 14.2468 251.466 14.6671C251.543 14.9105 251.587 15.1649 251.654 15.4414C250.904 15.5852 250.738 15.7843 250.683 16.4922ZM200.86 16.8351C200.893 16.6139 201.014 16.3816 201.157 16.2046C201.422 15.8507 201.775 15.8507 202.051 16.2046C202.404 16.6581 202.647 17.178 202.812 17.7311C202.834 17.7864 202.845 17.8528 202.867 17.9302C202.117 18.2178 202.073 18.2841 202.15 19.0805C202.161 19.2243 202.183 19.3792 202.15 19.523C202.095 19.7885 201.841 19.8991 201.632 19.7221C201.444 19.5672 201.257 19.3681 201.157 19.1469C200.816 18.4058 200.749 17.6205 200.86 16.8351Z" fill="black"/>
<path d="M190.855 22.1777C191.638 22.4984 192.444 22.4874 193.271 22.4763C195.201 22.4321 196.977 20.9167 197.341 19.0142C197.495 18.1735 197.495 17.3439 197.297 16.5143C197.065 15.552 196.657 14.6893 196.017 13.9371C195.675 13.5389 195.212 13.4283 194.782 13.6495C195.278 14.2357 195.653 14.8773 195.808 15.6295C195.4 14.999 194.892 14.4791 194.275 14.0145C194.087 14.28 193.999 14.5565 194.098 14.8441C194.175 15.0764 194.297 15.3087 194.44 15.5188C194.97 16.3152 195.245 17.167 195.135 18.1293C194.925 19.9544 193.249 20.4521 192.124 20.1535C190.756 19.7995 189.885 18.2731 190.293 16.8572C190.436 16.3374 190.712 15.8507 190.955 15.364C191.285 14.7335 191.219 14.1694 190.745 13.8044C190.127 13.3398 189.41 13.4615 188.991 14.1473C188.098 15.5963 187.69 17.1338 188.12 18.8372C188.495 20.3747 189.333 21.5582 190.855 22.1777Z" fill="black"/>
<path d="M262.11 24.8434C262.298 25.3301 262.673 25.5403 263.169 25.4518C263.401 25.4075 263.621 25.3522 263.853 25.3412C264.283 25.3301 264.702 25.3522 265.133 25.3412C265.64 25.3412 265.894 25.0868 265.916 24.5779C265.938 23.9585 265.651 23.5493 265.044 23.3833C264.526 23.2395 263.985 23.2285 263.467 23.328C263.103 23.3944 262.739 23.5382 262.408 23.6931C262.143 23.8258 262.033 24.1023 262.033 24.412C262.243 24.401 262.419 24.3899 262.607 24.3788C262.794 24.3788 262.982 24.3788 263.169 24.3788C263.169 24.401 263.18 24.4231 263.18 24.4452C263.004 24.5005 262.827 24.5558 262.651 24.6111C262.463 24.6886 262.287 24.777 262.11 24.8434Z" fill="black"/>
<path d="M309.683 30.6948C309.672 31.3363 310.191 31.8783 310.831 31.8783C311.47 31.8894 312 31.3695 312.011 30.728C312.022 30.0753 311.514 29.5555 310.864 29.5444C310.213 29.5444 309.683 30.0532 309.683 30.6948Z" fill="black"/>
<path d="M310.533 26.9893V28.1175C310.511 28.1175 310.478 28.1286 310.445 28.1286C310.345 27.7636 310.235 27.3986 310.125 27.0225C309.496 27.2437 309.187 27.8189 309.364 28.4494C309.518 29.0246 310.125 29.4006 310.709 29.279C311.327 29.1462 311.713 28.56 311.614 27.8963C311.514 27.2879 311.117 26.934 310.533 26.9893Z" fill="black"/>
<path d="M86.7414 59.7525H88.1643V63.9226H88.7709V59.7525H90.1938V59.2326H86.7414V59.7525Z" fill="black"/>
<path d="M93.5801 61.2015H91.3189V59.2326H90.7233V63.9226H91.3189V61.7325H93.5801V63.9226H94.1867V59.2326H93.5801V61.2015Z" fill="black"/>
<path d="M95.8413 61.7325H97.6613V61.2236H95.8413V59.7414H97.7605V59.2326H95.2346V63.9226H97.8708V63.4138H95.8413V61.7325Z" fill="black"/>
<path d="M101.356 59.2326L99.768 63.9226H100.397L100.882 62.4514H102.537L103.033 63.9226H103.673L102.073 59.2326H101.356ZM101.003 61.9758L101.456 60.6153C101.544 60.3277 101.621 60.0401 101.687 59.7636H101.698C101.764 60.0401 101.842 60.3166 101.941 60.6153L102.393 61.9647H101.003V61.9758Z" fill="black"/>
<path d="M107.302 61.2015C107.302 61.9316 107.313 62.5067 107.368 63.1262L107.357 63.1372C107.136 62.6616 106.86 62.1639 106.518 61.6108L105.018 59.2437H104.357V63.9336H104.93V61.9316C104.93 61.1573 104.919 60.5932 104.886 59.9959L104.908 59.9848C105.14 60.4936 105.46 61.0245 105.779 61.5444L107.258 63.9226H107.864V59.2326H107.291V61.2015H107.302Z" fill="black"/>
<path d="M110.324 61.2679C109.684 61.0135 109.397 60.8033 109.397 60.3609C109.397 60.0401 109.64 59.6529 110.28 59.6529C110.699 59.6529 111.019 59.7967 111.162 59.8742L111.328 59.3764C111.118 59.2547 110.776 59.1441 110.291 59.1441C109.386 59.1441 108.78 59.6861 108.78 60.4162C108.78 61.0798 109.254 61.478 110.015 61.7435C110.644 61.9869 110.897 62.2413 110.897 62.6727C110.897 63.1483 110.533 63.4691 109.916 63.4691C109.497 63.4691 109.1 63.3253 108.835 63.1593L108.68 63.6682C108.934 63.8341 109.419 63.9668 109.872 63.9668C110.975 63.9668 111.504 63.3363 111.504 62.6173C111.515 61.9537 111.118 61.5776 110.324 61.2679Z" fill="black"/>
<path d="M116.391 61.5997C116.247 62.186 116.115 62.7058 116.015 63.2257H116.004C115.938 62.728 115.806 62.1749 115.674 61.6218L115.1 59.2437H114.471L113.843 61.6108C113.688 62.2191 113.534 62.7722 113.456 63.2368H113.445C113.357 62.7833 113.236 62.197 113.104 61.6218L112.552 59.2547H111.912L113.092 63.9447H113.721L114.383 61.5002C114.559 60.8918 114.659 60.4383 114.747 59.9737H114.758C114.824 60.4494 114.912 60.9029 115.067 61.5002L115.651 63.9447H116.28L117.604 59.2547H116.986L116.391 61.5997Z" fill="black"/>
<path d="M118.817 61.7325H120.626V61.2236H118.817V59.7414H120.736V59.2326H118.21V63.9226H120.836V63.4138H118.817V61.7325Z" fill="black"/>
<path d="M123.615 61.6882V61.6661C124.112 61.5002 124.498 61.0909 124.498 60.4715C124.498 60.1064 124.365 59.7857 124.134 59.5866C123.847 59.3211 123.428 59.1994 122.777 59.1994C122.358 59.1994 121.928 59.2326 121.619 59.299V63.9226H122.225V61.8873H122.799C123.351 61.9094 123.593 62.1528 123.737 62.7943C123.869 63.3806 123.968 63.7788 124.045 63.9115H124.674C124.575 63.7345 124.465 63.281 124.31 62.6284C124.2 62.1528 123.979 61.8209 123.615 61.6882ZM122.843 61.4338H122.225V59.7193C122.325 59.6861 122.534 59.664 122.821 59.664C123.461 59.6751 123.891 59.9405 123.891 60.5378C123.902 61.0798 123.483 61.4338 122.843 61.4338Z" fill="black"/>
<path d="M126.009 59.7525H127.432V63.9226H128.038V59.7525H129.472V59.2326H126.009V59.7525Z" fill="black"/>
<path d="M131.7 59.1663C130.454 59.1663 129.527 60.1396 129.527 61.6329C129.527 63.0487 130.399 64.0111 131.623 64.0111C132.814 64.0111 133.796 63.1593 133.796 61.5444C133.796 60.1396 132.969 59.1663 131.7 59.1663ZM131.667 63.5022C130.719 63.5022 130.178 62.6063 130.178 61.5997C130.178 60.571 130.675 59.6419 131.678 59.6419C132.682 59.6419 133.167 60.6153 133.167 61.5444C133.156 62.6284 132.616 63.5022 131.667 63.5022Z" fill="black"/>
<path d="M137.602 60.5268C137.425 60.8808 137.26 61.1905 137.127 61.4891H137.116C136.973 61.1573 136.829 60.8808 136.653 60.5268L135.991 59.2326H135.307L136.785 61.9316V63.9226H137.392V61.9316L138.958 59.2437H138.274L137.602 60.5268Z" fill="black"/>
<path d="M141.142 59.1663C139.896 59.1663 138.969 60.1396 138.969 61.6329C138.969 63.0487 139.841 64.0111 141.065 64.0111C142.256 64.0111 143.238 63.1593 143.238 61.5444C143.238 60.1396 142.422 59.1663 141.142 59.1663ZM141.109 63.5022C140.161 63.5022 139.62 62.6063 139.62 61.5997C139.62 60.571 140.116 59.6419 141.12 59.6419C142.124 59.6419 142.609 60.6153 142.609 61.5444C142.609 62.6284 142.069 63.5022 141.109 63.5022Z" fill="black"/>
<path d="M146.856 62.009C146.856 63.0487 146.415 63.5023 145.72 63.5023C145.091 63.5023 144.628 63.0598 144.628 62.009V59.2326H144.021V61.9979C144.021 63.4469 144.738 64 145.698 64C146.712 64 147.463 63.4138 147.463 61.9647V59.2326H146.856V62.009Z" fill="black"/>
<path d="M150.507 61.6882V61.6661C151.003 61.5002 151.389 61.0909 151.389 60.4715C151.389 60.1064 151.257 59.7857 151.025 59.5866C150.739 59.3211 150.319 59.1994 149.669 59.1994C149.249 59.1994 148.819 59.2326 148.51 59.299V63.9226H149.117V61.8873H149.691C150.242 61.9094 150.485 62.1528 150.628 62.7943C150.761 63.3806 150.86 63.7788 150.937 63.9115H151.566C151.467 63.7345 151.356 63.281 151.202 62.6284C151.08 62.1528 150.871 61.8209 150.507 61.6882ZM149.735 61.4338H149.117V59.7193C149.216 59.6861 149.426 59.664 149.713 59.664C150.352 59.6751 150.783 59.9405 150.783 60.5378C150.783 61.0798 150.375 61.4338 149.735 61.4338Z" fill="black"/>
<path d="M155.901 59.664C156.287 59.664 156.618 59.7525 156.838 59.8631L156.982 59.3654C156.827 59.2769 156.452 59.1552 155.868 59.1552C154.423 59.1552 153.43 60.1507 153.43 61.6219C153.43 63.1594 154.423 63.9889 155.735 63.9889C156.309 63.9889 156.75 63.8783 156.971 63.7677L156.849 63.2921C156.607 63.4138 156.232 63.4912 155.868 63.4912C154.731 63.4912 154.07 62.7501 154.07 61.6108C154.07 60.3719 154.798 59.664 155.901 59.664Z" fill="black"/>
<path d="M159.485 59.1663C158.239 59.1663 157.312 60.1396 157.312 61.6329C157.312 63.0487 158.184 64.0111 159.408 64.0111C160.599 64.0111 161.581 63.1593 161.581 61.5444C161.592 60.1396 160.765 59.1663 159.485 59.1663ZM159.452 63.5022C158.504 63.5022 157.963 62.6063 157.963 61.5997C157.963 60.571 158.46 59.6419 159.463 59.6419C160.467 59.6419 160.952 60.6153 160.952 61.5444C160.952 62.6284 160.412 63.5022 159.452 63.5022Z" fill="black"/>
<path d="M165.96 59.2326L165.133 61.5002C164.923 62.0864 164.758 62.6063 164.637 63.0819H164.614C164.493 62.5952 164.339 62.0754 164.14 61.5002L163.346 59.2326H162.574L162.243 63.9226H162.817L162.938 61.9094C162.982 61.2126 163.015 60.4162 163.026 59.841H163.037C163.17 60.3941 163.357 61.0024 163.578 61.6661L164.328 63.9005H164.78L165.607 61.6219C165.839 60.9803 166.037 60.3941 166.192 59.841H166.214C166.203 60.4272 166.247 61.2126 166.28 61.8652L166.401 63.9226H166.986L166.699 59.2326H165.96Z" fill="black"/>
<path d="M171.53 59.2326L170.703 61.5002C170.494 62.0864 170.328 62.6063 170.207 63.0819H170.185C170.063 62.5952 169.909 62.0754 169.71 61.5002L168.916 59.2326H168.144L167.813 63.9226H168.387L168.508 61.9094C168.552 61.2126 168.585 60.4162 168.596 59.841H168.607C168.74 60.3941 168.927 61.0024 169.148 61.6661L169.898 63.9005H170.35L171.177 61.6219C171.409 60.9803 171.608 60.3941 171.762 59.841H171.784C171.773 60.4272 171.817 61.2126 171.85 61.8652L171.972 63.9226H172.556L172.269 59.2326H171.53Z" fill="black"/>
<path d="M176.351 62.009C176.351 63.0487 175.909 63.5023 175.214 63.5023C174.586 63.5023 174.123 63.0598 174.123 62.009V59.2326H173.516V61.9979C173.516 63.4469 174.233 64 175.192 64C176.207 64 176.957 63.4138 176.957 61.9647V59.2326H176.351V62.009Z" fill="black"/>
<path d="M180.95 61.2015C180.95 61.9316 180.961 62.5067 181.016 63.1262L181.005 63.1372C180.785 62.6616 180.509 62.1639 180.167 61.6108L178.667 59.2437H178.005V63.9336H178.579V61.9316C178.579 61.1573 178.568 60.5932 178.535 59.9959L178.557 59.9848C178.788 60.4936 179.108 61.0245 179.428 61.5444L180.917 63.9226H181.524V59.2326H180.95V61.2015Z" fill="black"/>
<path d="M183.178 59.2326H182.572V63.9226H183.178V59.2326Z" fill="black"/>
<path d="M186.41 59.664C186.796 59.664 187.127 59.7525 187.348 59.8631L187.491 59.3654C187.337 59.2769 186.962 59.1552 186.377 59.1552C184.932 59.1552 183.939 60.1507 183.939 61.6219C183.939 63.1594 184.932 63.9889 186.245 63.9889C186.818 63.9889 187.259 63.8783 187.48 63.7677L187.359 63.2921C187.116 63.4138 186.741 63.4912 186.377 63.4912C185.241 63.4912 184.579 62.7501 184.579 61.6108C184.59 60.3719 185.318 59.664 186.41 59.664Z" fill="black"/>
<path d="M189.51 59.2326L187.921 63.9226H188.55L189.035 62.4514H190.69L191.186 63.9226H191.826L190.227 59.2326H189.51ZM189.157 61.9758L189.609 60.6153C189.697 60.3277 189.774 60.0401 189.841 59.7636H189.852C189.918 60.0401 189.995 60.3166 190.094 60.6153L190.546 61.9647H189.157V61.9758Z" fill="black"/>
<path d="M191.451 59.7525H192.874V63.9226H193.48V59.7525H194.903V59.2326H191.451V59.7525Z" fill="black"/>
<path d="M196.039 59.2326H195.433V63.9226H196.039V59.2326Z" fill="black"/>
<path d="M198.974 59.1663C197.727 59.1663 196.801 60.1396 196.801 61.6329C196.801 63.0487 197.672 64.0111 198.896 64.0111C200.088 64.0111 201.069 63.1593 201.069 61.5444C201.08 60.1396 200.253 59.1663 198.974 59.1663ZM198.94 63.5022C197.992 63.5022 197.451 62.6063 197.451 61.5997C197.451 60.571 197.948 59.6419 198.951 59.6419C199.955 59.6419 200.441 60.6153 200.441 61.5444C200.441 62.6284 199.9 63.5022 198.94 63.5022Z" fill="black"/>
<path d="M204.797 61.2015C204.797 61.9316 204.808 62.5067 204.864 63.1262L204.853 63.1372C204.632 62.6616 204.356 62.1639 204.014 61.6108L202.514 59.2437H201.852V63.9336H202.426V61.9316C202.426 61.1573 202.415 60.5932 202.382 59.9959L202.404 59.9848C202.636 60.4936 202.955 61.0245 203.275 61.5444L204.753 63.9226H205.36V59.2326H204.786V61.2015H204.797Z" fill="black"/>
<path d="M210.831 61.2015C210.831 61.9316 210.842 62.5067 210.897 63.1262L210.886 63.1372C210.666 62.6616 210.39 62.1639 210.048 61.6108L208.548 59.2437H207.886V63.9336H208.459V61.9316C208.459 61.1573 208.448 60.5932 208.415 59.9959L208.437 59.9848C208.669 60.4936 208.989 61.0245 209.309 61.5444L210.787 63.9226H211.393V59.2326H210.82V61.2015H210.831Z" fill="black"/>
<path d="M213.059 61.7325H214.879V61.2236H213.059V59.7414H214.978V59.2326H212.452V63.9226H215.089V63.4138H213.059V61.7325Z" fill="black"/>
<path d="M216.467 61.7325H218.287V61.2236H216.467V59.7414H218.387V59.2326H215.872V63.9226H218.497V63.4138H216.467V61.7325Z" fill="black"/>
<path d="M220.56 59.1994C220.085 59.1994 219.644 59.2437 219.28 59.299V63.9115C219.589 63.9447 219.942 63.9668 220.372 63.9668C221.277 63.9668 222.005 63.7345 222.435 63.2921C222.876 62.8607 223.108 62.2302 223.108 61.467C223.108 60.7038 222.865 60.1618 222.446 59.7857C222.049 59.4096 221.431 59.1994 220.56 59.1994ZM220.493 63.4801C220.262 63.4801 220.041 63.469 219.887 63.4469V59.7414C220.041 59.7082 220.284 59.6751 220.593 59.6751C221.872 59.6751 222.49 60.383 222.49 61.478C222.479 62.7611 221.784 63.4801 220.493 63.4801Z" fill="black"/>
<path d="M225.303 61.2679C224.663 61.0135 224.376 60.8033 224.376 60.3609C224.376 60.0401 224.619 59.6529 225.258 59.6529C225.678 59.6529 225.997 59.7967 226.141 59.8742L226.306 59.3764C226.097 59.2547 225.755 59.1441 225.269 59.1441C224.365 59.1441 223.758 59.6861 223.758 60.4162C223.758 61.0798 224.233 61.478 224.994 61.7435C225.622 61.9869 225.876 62.2413 225.876 62.6727C225.876 63.1483 225.512 63.4691 224.894 63.4691C224.475 63.4691 224.078 63.3253 223.813 63.1593L223.659 63.6682C223.913 63.8341 224.398 63.9668 224.85 63.9668C225.953 63.9668 226.483 63.3363 226.483 62.6173C226.494 61.9537 226.086 61.5776 225.303 61.2679Z" fill="black"/>
</g>
<defs>
<clipPath id="clip0_1_34">
<rect width="315" height="64" fill="black"/>
</clipPath>
</defs>
</svg>
