<svg width="18" height="18" viewBox="0 0 18 18" fill="none" xmlns="http://www.w3.org/2000/svg">
<circle cx="8" cy="8" r="7" stroke="#222222" stroke-width="2"/>
<path d="M8 5C7.60603 5 7.21593 5.0776 6.85195 5.22836C6.48797 5.37913 6.15726 5.6001 5.87868 5.87868C5.6001 6.15726 5.37913 6.48797 5.22836 6.85195C5.0776 7.21593 5 7.60603 5 8" stroke="#222222" stroke-width="2" stroke-linecap="round"/>
<path d="M17 17L14 14" stroke="#222222" stroke-width="2" stroke-linecap="round"/>
</svg>
