<svg width="86" height="34" viewBox="0 0 86 34" fill="none" xmlns="http://www.w3.org/2000/svg">
<g clip-path="url(#clip0_123_4)">
<path d="M79.3396 34H6.6604C2.98599 34 0 31.0364 0 27.3811V6.6104C0 2.96358 2.98599 0 6.6604 0H79.3396C83.0226 0 86 2.96358 86 6.6104V27.3811C86 31.0364 83.014 34 79.3396 34Z" fill="url(#paint0_linear_123_4)"/>
<path d="M74.4261 10.7869L69.8309 28.2182L69.8137 28.2523H73.4021L78.0144 10.7869H74.4261Z" fill="#292929"/>
<path d="M17.5115 20.7024C17.0382 20.9501 16.3928 21.0953 15.7819 21.0953C14.4911 21.0953 13.7597 20.8903 13.6822 19.8569V19.7886C13.6822 19.7459 13.6736 19.7032 13.6736 19.6605V16.6542L13.6822 16.2955V14.1689H13.6736V13.2636L13.6822 12.9049V10.8552L10.4811 11.2737C12.6496 10.8552 13.8887 9.15559 13.8887 7.46456V6.42261H10.2918V11.2993L10.0853 11.3591V20.395C10.2057 22.9315 11.8924 24.4432 14.6546 24.4432C15.6356 24.4432 16.7112 24.2211 17.5373 23.8539L17.5545 23.8454V20.6768L17.5115 20.7024Z" fill="#292929"/>
<path d="M18.0795 10.1292L7.9856 11.675V14.2115L18.0795 12.6657V10.1292Z" fill="#292929"/>
<path d="M18.0795 13.8445L7.9856 15.3903V17.8158L18.0795 16.27V13.8445Z" fill="#292929"/>
<path d="M29.3952 15.0143C29.249 12.1959 27.4763 10.522 24.585 10.522C22.9242 10.522 21.5473 11.1625 20.618 12.3667C19.6886 13.571 19.1981 15.3389 19.1981 17.4825C19.1981 19.6262 19.6886 21.4027 20.618 22.5983C21.5473 23.8026 22.9242 24.4431 24.585 24.4431C27.4763 24.4431 29.2576 22.7606 29.3952 19.9251V24.1783H32.9922V10.8124L29.3952 11.3589M29.5845 17.4825C29.5845 19.9849 28.2594 21.5991 26.2199 21.5991C24.1117 21.5991 22.8553 20.0618 22.8553 17.4825C22.8553 14.8947 24.1117 13.3404 26.2199 13.3404C27.2439 13.3404 28.1045 13.7332 28.6982 14.4848C29.2748 15.2278 29.5845 16.2612 29.5845 17.4825Z" fill="#292929"/>
<path d="M43.4819 10.5221C40.5819 10.5221 38.8093 12.196 38.6716 15.023V6.92651L35.0746 7.47311V24.1785H38.6716V19.9253C38.8093 22.7607 40.5906 24.4432 43.4819 24.4432C46.8723 24.4432 48.8945 21.8383 48.8945 17.4827C48.8945 13.127 46.8723 10.5221 43.4819 10.5221ZM41.8469 21.5992C39.7989 21.5992 38.4823 19.985 38.4823 17.4827C38.4823 16.2614 38.7921 15.2279 39.3686 14.4935C39.9624 13.7419 40.8229 13.349 41.8469 13.349C43.9552 13.349 45.2115 14.8949 45.2115 17.4912C45.2115 20.0619 43.9552 21.5992 41.8469 21.5992Z" fill="#292929"/>
<path d="M58.6786 10.5221C55.7787 10.5221 54.006 12.196 53.8683 15.023V6.92651L50.2714 7.47311V24.1785H53.8683V19.9253C54.006 22.7607 55.7873 24.4432 58.6786 24.4432C62.069 24.4432 64.0913 21.8383 64.0913 17.4827C64.0913 13.127 62.069 10.5221 58.6786 10.5221ZM57.0522 21.5992C55.0042 21.5992 53.6876 19.985 53.6876 17.4827C53.6876 16.2614 53.9974 15.2279 54.5739 14.4935C55.1677 13.7419 56.0282 13.349 57.0522 13.349C59.1605 13.349 60.4168 14.8949 60.4168 17.4912C60.4168 20.0619 59.1605 21.5992 57.0522 21.5992Z" fill="#292929"/>
<path d="M64.0999 10.7869H67.9378L71.0614 24.1614H67.6194L64.0999 10.7869Z" fill="#292929"/>
</g>
<defs>
<linearGradient id="paint0_linear_123_4" x1="0" y1="16.9987" x2="86.0009" y2="16.9987" gradientUnits="userSpaceOnUse">
<stop stop-color="#3BFF9D"/>
<stop offset="1" stop-color="#3BFFC8"/>
</linearGradient>
<clipPath id="clip0_123_4">
<rect width="86" height="34" fill="white"/>
</clipPath>
</defs>
</svg>
