-- Merging decision tree log ---
manifest
ADDED from C:\Users\HiPhone\AppData\Local\Pub\Cache\hosted\pub.dev\flutter_native_splash-2.3.7\android\src\main\AndroidManifest.xml:1:1-3:12
INJECTED from C:\Users\HiPhone\AppData\Local\Pub\Cache\hosted\pub.dev\flutter_native_splash-2.3.7\android\src\main\AndroidManifest.xml:1:1-3:12
INJECTED from C:\Users\HiPhone\AppData\Local\Pub\Cache\hosted\pub.dev\flutter_native_splash-2.3.7\android\src\main\AndroidManifest.xml:1:1-3:12
	package
		ADDED from C:\Users\HiPhone\AppData\Local\Pub\Cache\hosted\pub.dev\flutter_native_splash-2.3.7\android\src\main\AndroidManifest.xml:2:3-48
		INJECTED from C:\Users\HiPhone\AppData\Local\Pub\Cache\hosted\pub.dev\flutter_native_splash-2.3.7\android\src\main\AndroidManifest.xml
		INJECTED from C:\Users\HiPhone\AppData\Local\Pub\Cache\hosted\pub.dev\flutter_native_splash-2.3.7\android\src\main\AndroidManifest.xml
	xmlns:android
		ADDED from C:\Users\HiPhone\AppData\Local\Pub\Cache\hosted\pub.dev\flutter_native_splash-2.3.7\android\src\main\AndroidManifest.xml:1:11-69
uses-sdk
INJECTED from C:\Users\HiPhone\AppData\Local\Pub\Cache\hosted\pub.dev\flutter_native_splash-2.3.7\android\src\main\AndroidManifest.xml reason: use-sdk injection requested
INJECTED from C:\Users\HiPhone\AppData\Local\Pub\Cache\hosted\pub.dev\flutter_native_splash-2.3.7\android\src\main\AndroidManifest.xml
INJECTED from C:\Users\HiPhone\AppData\Local\Pub\Cache\hosted\pub.dev\flutter_native_splash-2.3.7\android\src\main\AndroidManifest.xml
INJECTED from C:\Users\HiPhone\AppData\Local\Pub\Cache\hosted\pub.dev\flutter_native_splash-2.3.7\android\src\main\AndroidManifest.xml
INJECTED from C:\Users\HiPhone\AppData\Local\Pub\Cache\hosted\pub.dev\flutter_native_splash-2.3.7\android\src\main\AndroidManifest.xml
	android:targetSdkVersion
		INJECTED from C:\Users\HiPhone\AppData\Local\Pub\Cache\hosted\pub.dev\flutter_native_splash-2.3.7\android\src\main\AndroidManifest.xml
		ADDED from C:\Users\HiPhone\AppData\Local\Pub\Cache\hosted\pub.dev\flutter_native_splash-2.3.7\android\src\main\AndroidManifest.xml
		INJECTED from C:\Users\HiPhone\AppData\Local\Pub\Cache\hosted\pub.dev\flutter_native_splash-2.3.7\android\src\main\AndroidManifest.xml
	android:minSdkVersion
		INJECTED from C:\Users\HiPhone\AppData\Local\Pub\Cache\hosted\pub.dev\flutter_native_splash-2.3.7\android\src\main\AndroidManifest.xml
		ADDED from C:\Users\HiPhone\AppData\Local\Pub\Cache\hosted\pub.dev\flutter_native_splash-2.3.7\android\src\main\AndroidManifest.xml
		INJECTED from C:\Users\HiPhone\AppData\Local\Pub\Cache\hosted\pub.dev\flutter_native_splash-2.3.7\android\src\main\AndroidManifest.xml
